Validation of the St. Gallen Algorithm for Treatment of Proximal Humerus Fractures
…
SGA_df <- rename(SGA_df,
         event = `unplanned secondary surgery (0-12 months postop)`,
         time = `follow up (months)`,
         group = `following algorithm`)
SGA_df$group <- factor(
    SGA_df$group,
    levels = c(0, 1),
    labels = c("Not following SGA", "Following SGA")
  )

SGA_df

## # A tibble: 320 × 17
##    `Study Number` D.o.B               `Age at diagnosis` Gender side   Neer
##             <dbl> <dttm>                           <dbl> <chr>  <chr> <dbl>
##  1              1 1939-04-06 00:00:00                 74 F      R         4
##  2              2 1965-11-29 00:00:00                 48 F      L         4
##  3              3 1947-03-15 00:00:00                 73 M      R         3
##  4              4 1966-01-14 00:00:00                 47 F      R         4
##  5              5 1963-12-17 00:00:00                 52 F      L         3
##  6              6 1975-02-06 00:00:00                 38 F      L         4
##  7              7 1952-11-06 00:00:00                 68 M      R         4
##  8              8 1960-06-21 00:00:00                 57 M      L         2
##  9              9 1964-11-21 00:00:00                 52 F      L         3
## 10             10 1939-06-23 00:00:00                 79 F      R         2
## # ℹ 310 more rows
## # ℹ 11 more variables: DTI <dbl>, `Date of Surgery/diagnosis` <dttm>,
## #   `done treatment` <chr>, `pathway allocation` <dbl>, `suggested TTT` <chr>,
## #   group <fct>, `Last follow up` <dttm>, time <dbl>, event <dbl>,
## #   `year of surgery/diganosis` <dbl>, year <dbl>

Since the original SGA was created based on secondary surgery within
12 months, we will create a second dataframe where any events that
occurred after twelve months are converted to non-events, and all time
to follow-up are capped at 12 months

SGA_12mo_df <- SGA_df
SGA_12mo_df$event[SGA_12mo_df$event == 1 & SGA_12mo_df$time > 12] <- 0
SGA_12mo_df$time[SGA_12mo_df$event == 0 & SGA_12mo_df$time > 12] <- 12
SGA_12mo_df

## # A tibble: 320 × 17
##    `Study Number` D.o.B               `Age at diagnosis` Gender side   Neer
##             <dbl> <dttm>                           <dbl> <chr>  <chr> <dbl>
##  1              1 1939-04-06 00:00:00                 74 F      R         4
##  2              2 1965-11-29 00:00:00                 48 F      L         4
##  3              3 1947-03-15 00:00:00                 73 M      R         3
##  4              4 1966-01-14 00:00:00                 47 F      R         4
##  5              5 1963-12-17 00:00:00                 52 F      L         3
##  6              6 1975-02-06 00:00:00                 38 F      L         4
##  7              7 1952-11-06 00:00:00                 68 M      R         4
##  8              8 1960-06-21 00:00:00                 57 M      L         2
##  9              9 1964-11-21 00:00:00                 52 F      L         3
## 10             10 1939-06-23 00:00:00                 79 F      R         2
## # ℹ 310 more rows
## # ℹ 11 more variables: DTI <dbl>, `Date of Surgery/diagnosis` <dttm>,
## #   `done treatment` <chr>, `pathway allocation` <dbl>, `suggested TTT` <chr>,
## #   group <fct>, `Last follow up` <dttm>, time <dbl>, event <dbl>,
## #   `year of surgery/diganosis` <dbl>, year <dbl>
…
